rusefi_bundle_uaefi/rusefi.master.uaefi/console/logs/rusEFI_trigger_log_2026-03-09_02_15_02_177.vcd
$date
	Mon Mar 09 02:15:02 EDT 2026
$end
$version
        1.0
$end
$timescale
        1ps
$end
$scope module test $end
$var wire 1 t PRI_TRG $end
$var wire 1 s SEC_TRG $end
$var wire 1 r TRG $end
$var wire 1 y SYNC $end
$var wire 1 c COIL $end
$var wire 1 i INJ $end
$upscope $end
$enddefinitions $end
$dumpvars
#5000
0t
1s
0r
0y
0c
0i
#5000
0t
1s
0r
0y
0c
0i
#5000
0t
1s
0r
0y
0c
0i
#5000
0t
1s
0r
0y
0c
0i
#5000
0t
1s
0r
0y
0c
0i
#5000
0t
1s
0r
0y
0c
0i
#5000
0t
1s
0r
0y
0c
0i
#5000
0t
1s
0r
0y
0c
0i
#5000
0t
1s
0r
0y
0c
0i
#5000
0t
1s
0r
0y
0c
0i
#5000
0t
1s
0r
0y
0c
0i
#5000
0t
1s
0r
0y
0c
0i
#5000
0t
1s
0r
0y
0c
0i
#5000
0t
1s
0r
0y
0c
0i
#5000
0t
1s
0r
0y
0c
0i
#5000
0t
1s
0r
0y
0c
0i
#5000
0t
1s
0r
0y
0c
0i
#5000
0t
1s
0r
0y
0c
0i
#5000
0t
1s
0r
0y
0c
0i
#5000
0t
1s
0r
0y
0c
0i
#5000
0t
1s
0r
0y
0c
0i
#5000
0t
1s
0r
0y
0c
0i
#5000
0t
1s
0r
0y
0c
0i
#5000
0t
1s
0r
0y
0c
0i
#5000
0t
1s
0r
0y
0c
0i
#5000
0t
1s
0r
0y
0c
0i
#5000
0t
1s
0r
0y
0c
0i
#5000
0t
1s
0r
0y
0c
0i
#5000
0t
1s
0r
0y
0c
0i
#5000
0t
1s
0r
0y
0c
0i
#5000
0t
1s
0r
0y
0c
0i
#5000
0t
1s
0r
0y
0c
0i
#5000
0t
1s
0r
0y
0c
0i
#5000
0t
1s
0r
0y
0c
0i
#5000
0t
1s
0r
0y
0c
0i
#5000
0t
1s
0r
0y
0c
0i
#5000
0t
1s
0r
0y
0c
0i
#5000
0t
1s
0r
0y
0c
0i
#5000
0t
1s
0r
0y
0c
0i
#5000
0t
1s
0r
0y
0c
0i
#5000
0t
1s
0r
0y
0c
0i
#5000
0t
1s
0r
0y
0c
0i
#5000
0t
1s
0r
0y
0c
0i
#5000
0t
1s
0r
0y
0c
0i
#5000
0t
1s
0r
0y
0c
0i
#5000
0t
1s
0r
0y
0c
0i
#5000
0t
1s
0r
0y
0c
0i
#5000
0t
1s
0r
0y
0c
0i
#5000
0t
1s
0r
0y
0c
0i
#5000
0t
1s
0r
0y
0c
0i
#5000
0t
1s
0r
0y
0c
0i
#5000
0t
1s
0r
0y
0c
0i
#5000
0t
1s
0r
0y
0c
0i
#5000
0t
1s
0r
0y
0c
0i
#5000
0t
1s
0r
0y
0c
0i
#5000
0t
1s
0r
0y
0c
0i
#5000
0t
1s
0r
0y
0c
0i
#5000
0t
1s
0r
0y
0c
0i
#5000
0t
1s
0r
0y
0c
0i
#5000
0t
1s
0r
0y
0c
0i
#5000
0t
1s
0r
0y
0c
0i
#5000
0t
1s
0r
0y
0c
0i
#5000
0t
1s
0r
0y
0c
0i
#5000
0t
1s
0r
0y
0c
0i
#5000
0t
1s
0r
0y
0c
0i
#5000
0t
1s
0r
0y
0c
0i
#5000
0t
1s
0r
0y
0c
0i
#5000
0t
1s
0r
0y
0c
0i
#5000
0t
1s
0r
0y
0c
0i
#5000
0t
1s
0r
0y
0c
0i
#5000
0t
1s
0r
0y
0c
0i
#5000
0t
1s
0r
0y
0c
0i
#5000
0t
1s
0r
0y
0c
0i
#5000
0t
1s
0r
0y
0c
0i
#5000
0t
1s
0r
0y
0c
0i
#5000
0t
1s
0r
0y
0c
0i
#5000
0t
1s
0r
0y
0c
0i
#5000
0t
1s
0r
0y
0c
0i
#5000
0t
1s
0r
0y
0c
0i
#5000
0t
1s
0r
0y
0c
0i
#5000
0t
1s
0r
0y
0c
0i
#5000
0t
1s
0r
0y
0c
0i
#5000
0t
1s
0r
0y
0c
0i
#5000
0t
1s
0r
0y
0c
0i
#5000
0t
1s
0r
0y
0c
0i
#5000
0t
1s
0r
0y
0c
0i
#5000
0t
1s
0r
0y
0c
0i
#5000
0t
1s
0r
0y
0c
0i
#5000
0t
1s
0r
0y
0c
0i
#5000
0t
1s
0r
0y
0c
0i
#5000
0t
1s
0r
0y
0c
0i
#5000
0t
1s
0r
0y
0c
0i
#5000
0t
1s
0r
0y
0c
0i
#5000
0t
1s
0r
0y
0c
0i
#5000
0t
1s
0r
0y
0c
0i
#5000
0t
1s
0r
0y
0c
0i
#5000
0t
1s
0r
0y
0c
0i
#5000
0t
1s
0r
0y
0c
0i
#5000
0t
1s
0r
0y
0c
0i
#5000
0t
1s
0r
0y
0c
0i
#5000
0t
1s
0r
0y
0c
0i
#5000
0t
1s
0r
0y
0c
0i
#5000
0t
1s
0r
0y
0c
0i
#5000
0t
1s
0r
0y
0c
0i
#5000
0t
1s
0r
0y
0c
0i
#5000
0t
1s
0r
0y
0c
0i
#5000
0t
1s
0r
0y
0c
0i
#5000
0t
1s
0r
0y
0c
0i
#5000
0t
1s
0r
0y
0c
0i
#5000
0t
1s
0r
0y
0c
0i
#5000
0t
1s
0r
0y
0c
0i
#5000
0t
1s
0r
0y
0c
0i
#5000
0t
1s
0r
0y
0c
0i
#5000
0t
1s
0r
0y
0c
0i
#5000
0t
1s
0r
0y
0c
0i
#5000
0t
1s
0r
0y
0c
0i
#5000
0t
1s
0r
0y
0c
0i
#5000
0t
1s
0r
0y
0c
0i
#5000
0t
1s
0r
0y
0c
0i
#5000
0t
1s
0r
0y
0c
0i
#5000
0t
1s
0r
0y
0c
0i
#5000
0t
1s
0r
0y
0c
0i
#5000
0t
1s
0r
0y
0c
0i
#5000
0t
1s
0r
0y
0c
0i
#5000
0t
1s
0r
0y
0c
0i
#5000
0t
1s
0r
0y
0c
0i
#5000
0t
1s
0r
0y
0c
0i
#5000
0t
1s
0r
0y
0c
0i
#5000
0t
1s
0r
0y
0c
0i
#5000
0t
1s
0r
0y
0c
0i
#5000
0t
1s
0r
0y
0c
0i
#5000
0t
1s
0r
0y
0c
0i
#5000
0t
1s
0r
0y
0c
0i
#5000
0t
1s
0r
0y
0c
0i
#5000
0t
1s
0r
0y
0c
0i
#5000
0t
1s
0r
0y
0c
0i
#5000
0t
1s
0r
0y
0c
0i
#5000
0t
1s
0r
0y
0c
0i
#5000
0t
1s
0r
0y
0c
0i
#5000
0t
1s
0r
0y
0c
0i
#5000
0t
1s
0r
0y
0c
0i
#5000
0t
1s
0r
0y
0c
0i
#5000
0t
1s
0r
0y
0c
0i
#5000
0t
1s
0r
0y
0c
0i
#5000
0t
1s
0r
0y
0c
0i
#5000
0t
1s
0r
0y
0c
0i
#5000
0t
1s
0r
0y
0c
0i
#5000
0t
1s
0r
0y
0c
0i
#5000
0t
1s
0r
0y
0c
0i
#5000
0t
1s
0r
0y
0c
0i
#5410
1t
1s
0r
0y
0c
0i
#5830
0t
1s
0r
0y
0c
0i
#6250
1t
1s
0r
0y
0c
0i
#6660
0t
1s
0r
0y
0c
0i
#7080
1t
1s
0r
0y
0c
0i
#7500
0t
1s
0r
0y
0c
0i
#7910
1t
1s
0r
0y
0c
0i
#8330
0t
1s
0r
0y
0c
0i
#8750
1t
1s
0r
0y
0c
0i
#9160
0t
1s
0r
0y
0c
0i
#9580
1t
1s
0r
0y
0c
0i
#10000
0t
1s
0r
0y
0c
0i
#10410
1t
1s
0r
0y
0c
0i
#10830
0t
1s
0r
0y
0c
0i
#11250
1t
1s
0r
0y
0c
0i
#11660
0t
1s
0r
0y
0c
0i
#12080
1t
1s
0r
0y
0c
0i
#12500
0t
1s
0r
0y
0c
0i
#12910
1t
1s
0r
0y
0c
0i
#13330
0t
1s
0r
0y
0c
0i
#13740
1t
1s
0r
0y
0c
0i
#14160
0t
1s
0r
0y
0c
0i
#14580
1t
1s
0r
0y
0c
0i
#15000
0t
1s
0r
0y
0c
0i
#15410
1t
1s
0r
0y
0c
0i
#15830
0t
1s
0r
0y
0c
0i
#16240
1t
1s
0r
0y
0c
0i
#16660
0t
1s
0r
0y
0c
0i
#17080
1t
1s
0r
0y
0c
0i
#17500
0t
1s
0r
0y
0c
0i
#17910
1t
1s
0r
0y
0c
0i
#18330
0t
1s
0r
0y
0c
0i
#18750
1t
1s
0r
0y
0c
0i
#19160
0t
1s
0r
0y
0c
0i
#19580
1t
1s
0r
0y
0c
0i
#20000
0t
1s
0r
0y
0c
0i
#20410
1t
1s
0r
0y
0c
0i
#20830
0t
1s
0r
0y
0c
0i
#21240
1t
1s
0r
0y
0c
0i
#21660
0t
1s
0r
0y
0c
0i
#22080
1t
1s
0r
0y
0c
0i
#22490
0t
1s
0r
0y
0c
0i
#22910
1t
1s
0r
0y
0c
0i
#23330
0t
1s
0r
0y
0c
0i
#23750
1t
1s
0r
0y
0c
0i
#24160
0t
1s
0r
0y
0c
0i
#24580
1t
1s
0r
0y
0c
0i
#25000
0t
1s
0r
0y
0c
0i
#25410
1t
1s
0r
0y
0c
0i
#25830
0t
1s
0r
0y
0c
0i
#26250
1t
1s
0r
0y
0c
0i
#26660
0t
1s
0r
0y
0c
0i
#27080
1t
1s
0r
0y
0c
0i
#27490
0t
1s
0r
0y
0c
0i
#27910
1t
1s
0r
0y
0c
0i
#28330
0t
1s
0r
0y
0c
0i
#28740
1t
1s
0r
0y
0c
0i
#29160
0t
1s
0r
0y
0c
0i
#29580
1t
1s
0r
0y
0c
0i
#30000
0t
1s
0r
0y
0c
0i
#30410
1t
1s
0r
0y
0c
0i
#30830
0t
1s
0r
0y
0c
0i
#31240
1t
1s
0r
0y
0c
0i
#31660
0t
1s
0r
0y
0c
0i
#32080
1t
1s
0r
0y
0c
0i
#32500
0t
1s
0r
0y
0c
0i
#32910
1t
1s
0r
0y
0c
0i
#33330
0t
1s
0r
0y
0c
0i
#33740
1t
1s
0r
0y
0c
0i
#34160
0t
1s
0r
0y
0c
0i
#34580
1t
1s
0r
0y
0c
0i
#35000
0t
1s
0r
0y
0c
0i
#35410
1t
1s
0r
0y
0c
0i
#35830
0t
1s
0r
0y
0c
0i
#36250
1t
1s
0r
0y
0c
0i
#36660
0t
1s
0r
0y
0c
0i
#37080
1t
1s
0r
0y
0c
0i
#37490
0t
1s
0r
0y
0c
0i
#37910
1t
1s
0r
0y
0c
0i
#38330
0t
1s
0r
0y
0c
0i
#38750
1t
1s
0r
0y
0c
0i
#39160
0t
1s
0r
0y
0c
0i
#39580
1t
1s
0r
0y
0c
0i
#39990
0t
1s
0r
0y
0c
0i
#40410
1t
1s
0r
0y
0c
0i
#40830
0t
1s
0r
0y
0c
0i
#41250
1t
1s
0r
0y
0c
0i
#41660
0t
1s
0r
0y
0c
0i
#42080
1t
1s
0r
0y
0c
0i
#42500
0t
1s
0r
0y
0c
0i
#42910
1t
1s
0r
0y
0c
0i
#43330
0t
1s
0r
0y
0c
0i
#43740
1t
1s
0r
0y
0c
0i
#44160
0t
1s
0r
0y
0c
0i
#44580
1t
1s
0r
0y
0c
0i
#45000
0t
1s
0r
0y
0c
0i
#45410
1t
1s
0r
0y
0c
0i
#45830
0t
1s
0r
0y
0c
0i
#46240
1t
1s
0r
0y
0c
0i
#46660
0t
1s
0r
0y
0c
0i
#47080
1t
1s
0r
0y
0c
0i
#47500
0t
1s
0r
0y
0c
0i
#47910
1t
1s
0r
0y
0c
0i
#48330
0t
1s
0r
0y
0c
0i
#48750
1t
1s
0r
0y
0c
0i
#49160
0t
1s
0r
0y
0c
0i
#49580
1t
1s
0r
0y
0c
0i
#49990
0t
1s
0r
0y
0c
0i
#50410
1t
1s
0r
0y
0c
0i
#50830
0t
1s
0r
0y
0c
0i
#51250
1t
1s
0r
0y
0c
0i
#51660
0t
1s
0r
0y
0c
0i
#52080
1t
1s
0r
0y
0c
0i
#52490
0t
1s
0r
0y
0c
0i
#52910
1t
1s
0r
0y
0c
0i
#55000
0t
1s
0r
0y
0c
0i
#55410
1t
1s
0r
0y
0c
0i
#55410
1t
1s
1r
1y
0c
0i
#55410
1t
1s
0r
1y
0c
0i
#55830
0t
1s
0r
1y
0c
0i
#56250
1t
1s
0r
1y
0c
0i
#56660
0t
1s
0r
1y
0c
0i
#57080
1t
1s
0r
1y
0c
0i
#57500
0t
1s
0r
1y
0c
0i
#57910
1t
1s
0r
1y
0c
0i
#58330
0t
1s
0r
1y
0c
0i
#58750
1t
1s
0r
1y
0c
0i
#59160
0t
1s
0r
1y
0c
0i
#59580
1t
1s
0r
1y
0c
0i
#60000
0t
1s
0r
1y
0c
0i
#60410
1t
1s
0r
1y
0c
0i
#60830
0t
1s
0r
1y
0c
0i
#61250
1t
1s
0r
1y
0c
0i
#61660
0t
1s
0r
1y
0c
0i
#62080
1t
1s
0r
1y
0c
0i
#62500
0t
1s
0r
1y
0c
0i
#62910
1t
1s
0r
1y
0c
0i
#63330
0t
1s
0r
1y
0c
0i
#63740
1t
1s
0r
1y
0c
0i
#64160
0t
1s
0r
1y
0c
0i
#64580
1t
1s
0r
1y
0c
0i
#65000
0t
1s
0r
1y
0c
0i
#65410
1t
1s
0r
1y
0c
0i
#65830
0t
1s
0r
1y
0c
0i
#66240
1t
1s
0r
1y
0c
0i
#66660
0t
1s
0r
1y
0c
0i
#67080
1t
1s
0r
1y
0c
0i
#67500
0t
1s
0r
1y
0c
0i
#67910
1t
1s
0r
1y
0c
0i
#68330
0t
1s
0r
1y
0c
0i
#68750
1t
1s
0r
1y
0c
0i
#69160
0t
1s
0r
1y
0c
0i
#69580
1t
1s
0r
1y
0c
1i
#70000
0t
1s
0r
1y
0c
1i
#70410
1t
1s
0r
1y
0c
1i
#70830
0t
1s
0r
1y
0c
1i
#71240
1t
1s
0r
1y
0c
1i
#71660
0t
1s
0r
1y
0c
1i
#72080
1t
1s
0r
1y
0c
1i
#72490
0t
1s
0r
1y
0c
1i
#72910
1t
1s
0r
1y
0c
1i
#73330
0t
1s
0r
1y
0c
1i
#73750
1t
1s
0r
1y
0c
1i
#74160
0t
1s
0r
1y
0c
1i
#74580
1t
1s
0r
1y
0c
1i
#75000
0t
1s
0r
1y
0c
0i
#75410
1t
1s
0r
1y
0c
0i
#75830
0t
1s
0r
1y
0c
0i
#76250
1t
1s
0r
1y
0c
0i
#76660
0t
1s
0r
1y
0c
0i
#77080
1t
1s
0r
1y
0c
0i
#77490
0t
1s
0r
1y
0c
0i
#77910
1t
1s
0r
1y
0c
0i
#78330
0t
1s
0r
1y
0c
0i
#78740
1t
1s
0r
1y
0c
0i
#79160
0t
1s
0r
1y
0c
0i
#79580
1t
1s
0r
1y
0c
0i
#80000
0t
1s
0r
1y
0c
0i
#80410
1t
1s
0r
1y
0c
0i
#80830
0t
1s
0r
1y
0c
0i
#81240
1t
1s
0r
1y
0c
0i
#81660
0t
1s
0r
1y
0c
0i
#82080
1t
1s
0r
1y
0c
0i
#82500
0t
1s
0r
1y
0c
0i
#82910
1t
1s
0r
1y
0c
0i
#83330
0t
1s
0r
1y
0c
0i
#83740
1t
1s
0r
1y
0c
0i
#84160
0t
1s
0r
1y
0c
0i
#84580
1t
1s
0r
1y
0c
0i
#85000
0t
1s
0r
1y
0c
0i
#85410
1t
1s
0r
1y
0c
0i
#85830
0t
1s
0r
1y
0c
0i
#86250
1t
1s
0r
1y
0c
0i
#86660
0t
1s
0r
1y
0c
0i
#87080
1t
1s
0r
1y
0c
0i
#87490
0t
1s
0r
1y
0c
0i
#87910
1t
1s
0r
1y
0c
0i
#88330
0t
1s
0r
1y
0c
0i
#88750
1t
1s
0r
1y
0c
0i
#89160
0t
1s
0r
1y
0c
0i
#89580
1t
1s
0r
1y
0c
0i
#89990
0t
1s
0r
1y
0c
0i
#90410
1t
1s
0r
1y
0c
0i
#90830
0t
1s
0r
1y
0c
0i
#91250
1t
1s
0r
1y
0c
0i
#91660
0t
1s
0r
1y
0c
0i
#92080
1t
1s
0r
1y
0c
0i
#92500
0t
1s
0r
1y
0c
0i
#92910
1t
1s
0r
1y
0c
0i
#93330
0t
1s
0r
1y
0c
0i
#93740
1t
1s
0r
1y
0c
0i
#94160
0t
1s
0r
1y
0c
0i
#94580
1t
1s
0r
1y
0c
1i
#95000
0t
1s
0r
1y
0c
1i
#95410
1t
1s
0r
1y
0c
1i
#95830
0t
1s
0r
1y
0c
1i
#96240
1t
1s
0r
1y
0c
1i
#96660
0t
1s
0r
1y
0c
1i
#97080
1t
1s
0r
1y
0c
1i
#97500
0t
1s
0r
1y
0c
1i
#97910
1t
1s
0r
1y
0c
1i
#98330
0t
1s
0r
1y
0c
1i
#98750
1t
1s
0r
1y
0c
1i
#99160
0t
1s
0r
1y
0c
1i
#99580
1t
1s
0r
1y
0c
1i
#99990
0t
1s
0r
1y
0c
0i
#100410
1t
1s
0r
1y
0c
0i
#100830
0t
1s
0r
1y
0c
0i
#101250
1t
1s
0r
1y
0c
0i
#101660
0t
1s
0r
1y
0c
0i
#102080
1t
1s
0r
1y
0c
0i
#102490
0t
1s
0r
1y
0c
0i
#102910
1t
1s
0r
1y
0c
0i
#105000
0t
1s
0r
1y
0c
0i
#105410
1t
1s
0r
1y
0c
0i
#105830
0t
1s
0r
1y
0c
0i
#106250
1t
1s
0r
1y
0c
0i
#106660
0t
1s
0r
1y
0c
0i
#107080
1t
1s
0r
1y
0c
0i
#107500
0t
1s
0r
1y
0c
0i
#107910
1t
1s
0r
1y
0c
0i
#108330
0t
1s
0r
1y
0c
0i
#108750
1t
1s
0r
1y
0c
0i
#109160
0t
1s
0r
1y
0c
0i
#109580
1t
1s
0r
1y
0c
0i
#110000
0t
1s
0r
1y
0c
0i
#110410
1t
1s
0r
1y
0c
0i
#110830
0t
1s
0r
1y
0c
0i
#111250
1t
1s
0r
1y
0c
0i
#111660
0t
1s
0r
1y
0c
0i
#112080
1t
1s
0r
1y
0c
0i
#112500
0t
1s
0r
1y
0c
0i
#112910
1t
1s
0r
1y
0c
0i
#113330
0t
1s
0r
1y
0c
0i
#113740
1t
1s
0r
1y
0c
0i
#114160
0t
1s
0r
1y
0c
0i
#114580
1t
1s
0r
1y
0c
0i
#115000
0t
1s
0r
1y
0c
0i
#115410
1t
1s
0r
1y
0c
0i
#115830
0t
1s
0r
1y
0c
0i
#116240
1t
1s
0r
1y
0c
0i
#116660
0t
1s
0r
1y
0c
0i
#117080
1t
1s
0r
1y
0c
0i
#117500
0t
1s
0r
1y
0c
0i
#117910
1t
1s
0r
1y
0c
0i
#118330
0t
1s
0r
1y
0c
0i
#118750
1t
1s
0r
1y
0c
0i
#119160
0t
1s
0r
1y
0c
0i
#119580
1t
1s
0r
1y
0c
1i
#120000
0t
1s
0r
1y
0c
1i
#120410
1t
1s
0r
1y
0c
1i
#120830
0t
1s
0r
1y
0c
1i
#121240
1t
1s
0r
1y
0c
1i
#121660
0t
1s
0r
1y
0c
1i
#122080
1t
1s
0r
1y
0c
1i
#122490
0t
1s
0r
1y
0c
1i
#122910
1t
1s
0r
1y
0c
1i
#123330
0t
1s
0r
1y
0c
1i
#123750
1t
1s
0r
1y
0c
1i
#124160
0t
1s
0r
1y
0c
1i
#124580
1t
1s
0r
1y
0c
1i
#125000
0t
1s
0r
1y
0c
0i
#125410
1t
1s
0r
1y
0c
0i
#125830
0t
1s
0r
1y
0c
0i
#126250
1t
1s
0r
1y
0c
0i
#126660
0t
1s
0r
1y
0c
0i
#127080
1t
1s
0r
1y
0c
0i
#127490
0t
1s
0r
1y
0c
0i
#127910
1t
1s
0r
1y
0c
0i
#128330
0t
1s
0r
1y
0c
0i
#128740
1t
1s
0r
1y
0c
0i
#129160
0t
1s
0r
1y
0c
0i
#129580
1t
1s
0r
1y
0c
0i
#130000
0t
1s
0r
1y
0c
0i
#130410
1t
1s
0r
1y
0c
0i
#130830
0t
1s
0r
1y
0c
0i
#131240
1t
1s
0r
1y
0c
0i
#131660
0t
1s
0r
1y
0c
0i
#132080
1t
1s
0r
1y
0c
0i
#132500
0t
1s
0r
1y
0c
0i
#132910
1t
1s
0r
1y
0c
0i
#133330
0t
1s
0r
1y
0c
0i
#133740
1t
1s
0r
1y
0c
0i
#134160
0t
1s
0r
1y
0c
0i
#134580
1t
1s
0r
1y
0c
0i
#135000
0t
1s
0r
1y
0c
0i
#135410
1t
1s
0r
1y
0c
0i
#135830
0t
1s
0r
1y
0c
0i
#136250
1t
1s
0r
1y
0c
0i
#136660
0t
1s
0r
1y
0c
0i
#137080
1t
1s
0r
1y
0c
0i
#137490
0t
1s
0r
1y
0c
0i
#137910
1t
1s
0r
1y
0c
0i
#138330
0t
1s
0r
1y
0c
0i
#138750
1t
1s
0r
1y
0c
0i
#139160
0t
1s
0r
1y
0c
0i
#139580
1t
1s
0r
1y
0c
0i
#139990
0t
1s
0r
1y
0c
0i
#140410
1t
1s
0r
1y
0c
0i
#140830
0t
1s
0r
1y
0c
0i
#141250
1t
1s
0r
1y
0c
0i
#141660
0t
1s
0r
1y
0c
0i
#142080
1t
1s
0r
1y
0c
0i
#142500
0t
1s
0r
1y
0c
0i
#142910
1t
1s
0r
1y
0c
0i
#143330
0t
1s
0r
1y
0c
0i
#143740
1t
1s
0r
1y
0c
0i
#144160
0t
1s
0r
1y
0c
0i
#144580
1t
1s
0r
1y
0c
1i
#145000
0t
1s
0r
1y
0c
1i
#145410
1t
1s
0r
1y
0c
1i
#145830
0t
1s
0r
1y
0c
1i
#146240
1t
1s
0r
1y
0c
1i
#146660
0t
1s
0r
1y
0c
1i
#147080
1t
1s
0r
1y
0c
1i
#147500
0t
1s
0r
1y
0c
1i
#147910
1t
1s
0r
1y
0c
1i
#148330
0t
1s
0r
1y
0c
1i
#148750
1t
1s
0r
1y
0c
1i
#149160
0t
1s
0r
1y
0c
1i
#149580
1t
1s
0r
1y
0c
1i
#149990
0t
1s
0r
1y
0c
0i
#150410
1t
1s
0r
1y
0c
0i
#150830
0t
1s
0r
1y
0c
0i
#151250
1t
1s
0r
1y
0c
0i
#151660
0t
1s
0r
1y
0c
0i
#152080
1t
1s
0r
1y
0c
0i
#152490
0t
1s
0r
1y
0c
0i
#152910
1t
1s
0r
1y
0c
0i
#155000
0t
1s
0r
1y
0c
0i
#155410
1t
1s
0r
1y
0c
0i
#155830
0t
1s
0r
1y
0c
0i
#156250
1t
1s
0r
1y
0c
0i
#156660
0t
1s
0r
1y
0c
0i
#157080
1t
1s
0r
1y
0c
0i
#157500
0t
1s
0r
1y
0c
0i
#157910
1t
1s
0r
1y
0c
0i
#158330
0t
1s
0r
1y
0c
0i
#158750
1t
1s
0r
1y
0c
0i
#159160
0t
1s
0r
1y
0c
0i
#159580
1t
1s
0r
1y
0c
0i
#160000
0t
1s
0r
1y
0c
0i
#160410
1t
1s
0r
1y
0c
0i
#160830
0t
1s
0r
1y
0c
0i
#161250
1t
1s
0r
1y
0c
0i
#161660
0t
1s
0r
1y
0c
0i
#162080
1t
1s
0r
1y
0c
0i
#162500
0t
1s
0r
1y
0c
0i
#162910
1t
1s
0r
1y
0c
0i
#163330
0t
1s
0r
1y
0c
0i
#163740
1t
1s
0r
1y
0c
0i
#164160
0t
1s
0r
1y
0c
0i
#164580
1t
1s
0r
1y
0c
0i
#165000
0t
1s
0r
1y
0c
0i
#165410
1t
1s
0r
1y
0c
0i
#165830
0t
1s
0r
1y
0c
0i
#166240
1t
1s
0r
1y
0c
0i
#166660
0t
1s
0r
1y
0c
0i
#167080
1t
1s
0r
1y
0c
0i
#167500
0t
1s
0r
1y
0c
0i
#167910
1t
1s
0r
1y
0c
0i
#168330
0t
1s
0r
1y
0c
0i
#168750
1t
1s
0r
1y
0c
0i
#169160
0t
1s
0r
1y
0c
0i
#169580
1t
1s
0r
1y
0c
1i
#170000
0t
1s
0r
1y
0c
1i
#170410
1t
1s
0r
1y
0c
1i
#170830
0t
1s
0r
1y
0c
1i
#171240
1t
1s
0r
1y
0c
1i
#171660
0t
1s
0r
1y
0c
1i
#172080
1t
1s
0r
1y
0c
1i
#172490
0t
1s
0r
1y
0c
1i
#172910
1t
1s
0r
1y
0c
1i
#173330
0t
1s
0r
1y
0c
1i
#173750
1t
1s
0r
1y
0c
1i
#174160
0t
1s
0r
1y
0c
1i
#174580
1t
1s
0r
1y
0c
1i
#175000
0t
1s
0r
1y
0c
0i
#175410
1t
1s
0r
1y
0c
0i
#175830
0t
1s
0r
1y
0c
0i
#176250
1t
1s
0r
1y
0c
0i
#176660
0t
1s
0r
1y
0c
0i
#177080
1t
1s
0r
1y
0c
0i
#177490
0t
1s
0r
1y
0c
0i
#177910
1t
1s
0r
1y
0c
0i
#178330
0t
1s
0r
1y
0c
0i
#178740
1t
1s
0r
1y
0c
0i
#179160
0t
1s
0r
1y
0c
0i
#179580
1t
1s
0r
1y
0c
0i
#180000
0t
1s
0r
1y
0c
0i
#180410
1t
1s
0r
1y
0c
0i
#180830
0t
1s
0r
1y
0c
0i
#181240
1t
1s
0r
1y
0c
0i
#181660
0t
1s
0r
1y
0c
0i
#182080
1t
1s
0r
1y
0c
0i
#182500
0t
1s
0r
1y
0c
0i
#182910
1t
1s
0r
1y
0c
0i
#183330
0t
1s
0r
1y
0c
0i
#183740
1t
1s
0r
1y
0c
0i
#184160
0t
1s
0r
1y
0c
0i
#184580
1t
1s
0r
1y
0c
0i
#185000
0t
1s
0r
1y
0c
0i
#185410
1t
1s
0r
1y
0c
0i
#185830
0t
1s
0r
1y
0c
0i
#186250
1t
1s
0r
1y
0c
0i
#186660
0t
1s
0r
1y
0c
0i
#187080
1t
1s
0r
1y
0c
0i
#187490
0t
1s
0r
1y
0c
0i
#187910
1t
1s
0r
1y
0c
0i
#188330
0t
1s
0r
1y
0c
0i
#188750
1t
1s
0r
1y
0c
0i
#189160
0t
1s
0r
1y
0c
0i
#189580
1t
1s
0r
1y
0c
0i
#189990
0t
1s
0r
1y
0c
0i
#190410
1t
1s
0r
1y
0c
0i
#190830
0t
1s
0r
1y
0c
0i
#191250
1t
1s
0r
1y
0c
0i
#191660
0t
1s
0r
1y
0c
0i
#192080
1t
1s
0r
1y
0c
0i
#192500
0t
1s
0r
1y
0c
0i
#192910
1t
1s
0r
1y
0c
0i
#193330
0t
1s
0r
1y
0c
0i
#193740
1t
1s
0r
1y
0c
0i
#194160
0t
1s
0r
1y
0c
0i
#194580
1t
1s
0r
1y
0c
1i
#195000
0t
1s
0r
1y
0c
1i
#195410
1t
1s
0r
1y
0c
1i
#195830
0t
1s
0r
1y
0c
1i
#196240
1t
1s
0r
1y
0c
1i
#196660
0t
1s
0r
1y
0c
1i
#197080
1t
1s
0r
1y
0c
1i
#197500
0t
1s
0r
1y
0c
1i
#197910
1t
1s
0r
1y
0c
1i
#198330
0t
1s
0r
1y
0c
1i
#198750
1t
1s
0r
1y
0c
1i
#199160
0t
1s
0r
1y
0c
1i
#199580
1t
1s
0r
1y
0c
1i
#199990
0t
1s
0r
1y
0c
0i
#200410
1t
1s
0r
1y
0c
0i
#200830
0t
1s
0r
1y
0c
0i
#201250
1t
1s
0r
1y
0c
0i
#201660
0t
1s
0r
1y
0c
0i
#202080
1t
1s
0r
1y
0c
0i
#202490
0t
1s
0r
1y
0c
0i
#202910
1t
1s
0r
1y
0c
0i
#205000
0t
1s
0r
1y
0c
0i
#205410
1t
1s
0r
1y
0c
0i
#205410
1t
1s
1r
1y
0c
0i
#205410
1t
1s
0r
1y
0c
0i
#205830
0t
1s
0r
1y
0c
0i
#206250
1t
1s
0r
1y
0c
0i
#206660
0t
1s
0r
1y
0c
0i
#207080
1t
1s
0r
1y
0c
0i
#207500
0t
1s
0r
1y
0c
0i
#207910
1t
1s
0r
1y
0c
0i
#208330
0t
1s
0r
1y
0c
0i
#208750
1t
1s
0r
1y
0c
0i
#209160
0t
1s
0r
1y
0c
0i
#209580
1t
1s
0r
1y
0c
0i
#210000
0t
1s
0r
1y
0c
0i
#210410
1t
1s
0r
1y
0c
0i
#210830
0t
1s
0r
1y
0c
0i
#211250
1t
1s
0r
1y
0c
0i
#211660
0t
1s
0r
1y
0c
0i
#212080
1t
1s
0r
1y
0c
0i
#212500
0t
1s
0r
1y
0c
0i
#212910
1t
1s
0r
1y
0c
0i
#213330
0t
1s
0r
1y
0c
0i
#213740
1t
1s
0r
1y
0c
0i
#214160
0t
1s
0r
1y
0c
0i
#214580
1t
1s
0r
1y
0c
0i
#215000
0t
1s
0r
1y
0c
0i
#215410
1t
1s
0r
1y
0c
0i
#215830
0t
1s
0r
1y
0c
0i
#216240
1t
1s
0r
1y
0c
0i
#216660
0t
1s
0r
1y
0c
0i
#217080
1t
1s
0r
1y
0c
0i
#217500
0t
1s
0r
1y
0c
0i
#217910
1t
1s
0r
1y
0c
0i
#218330
0t
1s
0r
1y
0c
0i
#218750
1t
1s
0r
1y
0c
0i
#219160
0t
1s
0r
1y
0c
0i
#219580
1t
1s
0r
1y
0c
0i
#220000
0t
1s
0r
1y
0c
0i
#220410
1t
1s
0r
1y
0c
0i
#220830
0t
1s
0r
1y
0c
0i
#221240
1t
1s
0r
1y
0c
0i
#221660
0t
1s
0r
1y
0c
1i
#222080
1t
1s
0r
1y
0c
1i
#222490
0t
1s
0r
1y
0c
1i
#222910
1t
1s
0r
1y
0c
1i
#223330
0t
1s
0r
1y
0c
1i
#223750
1t
1s
0r
1y
0c
1i
#224160
0t
1s
0r
1y
0c
1i
#224580
1t
1s
0r
1y
0c
1i
#225000
0t
1s
0r
1y
0c
1i
#225410
1t
1s
0r
1y
0c
1i
#225830
0t
1s
0r
1y
0c
1i
#226250
1t
1s
0r
1y
0c
1i
#226660
0t
1s
0r
1y
0c
1i
