rusefi_bundle_uaefi/rusefi.master.uaefi/console/logs/rusEFI_trigger_log_2026-03-05_03_14_57_524.vcd
$date
	Thu Mar 05 03:14:57 EST 2026
$end
$version
        1.0
$end
$timescale
        1ps
$end
$scope module test $end
$var wire 1 t PRI_TRG $end
$var wire 1 s SEC_TRG $end
$var wire 1 r TRG $end
$var wire 1 y SYNC $end
$var wire 1 c COIL $end
$var wire 1 i INJ $end
$upscope $end
$enddefinitions $end
$dumpvars
#87230790
1t
0s
0r
0y
0c
0i
#87230790
0t
0s
0r
0y
0c
0i
#87330770
1t
0s
0r
0y
0c
0i
#87330770
0t
0s
0r
0y
0c
0i
#87430725
1t
0s
0r
0y
0c
0i
#87430725
0t
0s
0r
0y
0c
0i
#87530721
1t
0s
0r
0y
0c
0i
#87530721
0t
0s
0r
0y
0c
0i
#87597401
1t
0s
0r
1y
0c
0i
#87597401
0t
0s
0r
1y
0c
0i
#87630683
1t
0s
0r
1y
0c
0i
#87630683
0t
0s
0r
1y
0c
0i
#87664033
1t
0s
0r
1y
0c
0i
#87664033
0t
0s
0r
1y
0c
0i
#87730686
1t
0s
0r
1y
0c
0i
#87730686
0t
0s
0r
1y
0c
0i
#87747306
1t
0s
0r
1y
0c
0i
#87747306
0t
0s
0r
1y
0c
0i
#87797328
1t
0s
0r
1y
0c
0i
#87797328
0t
0s
0r
1y
0c
0i
#87797374
0t
0s
1r
1y
0c
0i
#87797377
0t
0s
0r
1y
0c
0i
#87813964
1t
0s
0r
1y
0c
0i
#87813964
0t
0s
0r
1y
0c
0i
#87830663
1t
0s
0r
1y
0c
0i
#87830663
0t
0s
0r
1y
0c
0i
#87847316
1t
0s
0r
1y
0c
0i
#87847316
0t
0s
0r
1y
0c
0i
#87880605
1t
0s
0r
1y
0c
0i
#87880605
0t
0s
0r
1y
0c
0i
#87980636
1t
0s
0r
1y
0c
0i
#87980636
0t
0s
0r
1y
0c
0i
#88013939
1t
0s
0r
1y
0c
0i
#88013939
0t
0s
0r
1y
0c
0i
#88097235
1t
0s
0r
1y
0c
0i
#88097235
0t
0s
0r
1y
0c
0i
#88130617
1t
0s
0r
1y
0c
0i
#88130617
0t
0s
0r
1y
0c
0i
#88147283
1t
0s
0r
1y
0c
0i
#88147283
0t
0s
0r
1y
0c
0i
#88180606
1t
0s
0r
1y
0c
0i
#88180606
0t
0s
0r
1y
0c
0i
#88213904
1t
0s
0r
1y
0c
0i
#88213904
0t
0s
0r
1y
0c
0i
#88263914
1t
0s
0r
1y
0c
0i
#88263914
0t
0s
0r
1y
0c
0i
#88297226
1t
0s
0r
1y
0c
0i
#88297226
0t
0s
0r
1y
0c
0i
#88330573
1t
0s
0r
1y
0c
0i
#88330573
0t
0s
0r
1y
0c
0i
#88380561
1t
0s
0r
1y
0c
0i
#88380561
0t
0s
0r
1y
0c
0i
#88447204
1t
0s
0r
1y
0c
0i
#88447204
0t
0s
0r
1y
0c
0i
#88530537
1t
0s
0r
1y
0c
0i
#88530537
0t
0s
0r
1y
0c
0i
#88630511
1t
0s
0r
1y
0c
0i
#88630511
0t
0s
0r
1y
0c
0i
#88713810
1t
0s
0r
1y
0c
0i
#88713810
0t
0s
0r
1y
0c
0i
#88752719
0t
0s
1r
1y
0c
0i
#88752721
0t
0s
0r
1y
0c
0i
#88780481
1t
0s
0r
1y
0c
0i
#88780481
0t
0s
0r
1y
0c
0i
#88797136
1t
0s
0r
1y
0c
0i
#88797136
0t
0s
0r
1y
0c
0i
#88847135
1t
0s
0r
1y
0c
0i
#88847135
0t
0s
0r
1y
0c
0i
#88863794
1t
0s
0r
1y
0c
0i
#88863794
0t
0s
0r
1y
0c
0i
#88880477
1t
0s
0r
1y
0c
0i
#88880477
0t
0s
0r
1y
0c
0i
#88897125
1t
0s
0r
1y
0c
0i
#88897125
0t
0s
0r
1y
0c
0i
#88913790
1t
0s
0r
1y
0c
0i
#88913790
0t
0s
0r
1y
0c
0i
#88930454
1t
0s
0r
1y
0c
0i
#88930454
0t
0s
0r
1y
0c
0i
#88947128
1t
0s
0r
1y
0c
0i
#88947128
0t
0s
0r
1y
0c
0i
#88963756
1t
0s
0r
1y
0c
0i
#88963756
0t
0s
0r
1y
0c
0i
#88980407
1t
0s
0r
1y
0c
0i
#88980407
0t
0s
0r
1y
0c
0i
#88997102
1t
0s
0r
1y
0c
0i
#88997102
0t
0s
0r
1y
0c
0i
#89097112
1t
0s
0r
1y
0c
0i
#89097112
0t
0s
0r
1y
0c
0i
#89130403
1t
0s
0r
0y
0c
0i
#89130403
0t
0s
0r
0y
0c
0i
#89147087
1t
0s
0r
0y
0c
0i
#89147087
0t
0s
0r
0y
0c
0i
#89163707
1t
0s
0r
1y
0c
0i
#89163707
0t
0s
0r
1y
0c
0i
#89213733
1t
0s
0r
1y
0c
0i
#89213733
0t
0s
0r
1y
0c
0i
#89230399
1t
0s
0r
1y
0c
0i
#89230399
0t
0s
0r
1y
0c
0i
#89247050
1t
0s
0r
1y
0c
0i
#89247050
0t
0s
0r
1y
0c
0i
#89263755
1t
0s
0r
1y
0c
0i
#89263755
0t
0s
0r
1y
0c
0i
#89269295
0t
0s
1r
1y
0c
0i
#89269298
0t
0s
0r
1y
0c
0i
#89313719
1t
0s
0r
1y
0c
0i
#89313719
0t
0s
0r
1y
0c
0i
#89363706
1t
0s
0r
1y
0c
0i
#89363706
0t
0s
0r
1y
0c
0i
#89463705
1t
0s
0r
1y
0c
0i
#89463705
0t
0s
0r
1y
0c
0i
#89563673
1t
0s
0r
1y
0c
0i
#89563673
0t
0s
0r
1y
0c
0i
#89580302
1t
0s
0r
1y
0c
0i
#89580302
0t
0s
0r
1y
0c
0i
#89597000
1t
0s
0r
0y
0c
0i
#89597000
0t
0s
0r
0y
0c
0i
#89613655
1t
0s
0r
0y
0c
0i
#89613655
0t
0s
0r
0y
0c
0i
#89646953
1t
0s
0r
1y
0c
0i
#89646953
0t
0s
0r
1y
0c
0i
#89663644
1t
0s
0r
1y
0c
0i
#89663644
0t
0s
0r
1y
0c
0i
#89713611
1t
0s
0r
1y
0c
0i
#89713611
0t
0s
0r
1y
0c
0i
#89730280
1t
0s
0r
1y
0c
0i
#89730280
0t
0s
0r
1y
0c
0i
#89735863
0t
0s
1r
1y
0c
0i
#89735866
0t
0s
0r
1y
0c
0i
#89746953
1t
0s
0r
1y
0c
0i
#89746953
0t
0s
0r
1y
0c
0i
#89763556
1t
0s
0r
1y
0c
0i
#89763556
0t
0s
0r
1y
0c
0i
#89780286
1t
0s
0r
1y
0c
0i
#89780286
0t
0s
0r
1y
0c
0i
#89796951
1t
0s
0r
1y
0c
0i
#89796951
0t
0s
0r
1y
0c
0i
#89813618
1t
0s
0r
1y
0c
0i
#89813618
0t
0s
0r
1y
0c
0i
#89830283
1t
0s
0r
1y
0c
0i
#89830283
0t
0s
0r
1y
0c
0i
#89846955
1t
0s
0r
1y
0c
0i
#89846955
0t
0s
0r
1y
0c
0i
#89863623
1t
0s
0r
1y
0c
0i
#89863623
0t
0s
0r
1y
0c
0i
#89880295
1t
0s
0r
1y
0c
0i
#89880295
0t
0s
0r
1y
0c
0i
#89896915
1t
0s
0r
1y
0c
0i
#89896915
0t
0s
0r
1y
0c
0i
#89913542
1t
0s
0r
1y
0c
0i
#89913542
0t
0s
0r
1y
0c
0i
#89930215
1t
0s
0r
1y
0c
0i
#89930215
0t
0s
0r
1y
0c
0i
#89980232
1t
0s
0r
1y
0c
0i
#89980232
0t
0s
0r
1y
0c
0i
#89996894
1t
0s
0r
1y
0c
0i
#89996894
0t
0s
0r
1y
0c
0i
#90013598
1t
0s
0r
1y
0c
0i
#90013598
0t
0s
0r
1y
0c
0i
#90030224
1t
0s
0r
1y
0c
0i
#90030224
0t
0s
0r
1y
0c
0i
#90046882
1t
0s
0r
1y
0c
0i
#90046882
0t
0s
0r
1y
0c
0i
#90146891
1t
0s
0r
1y
0c
0i
#90146891
0t
0s
0r
1y
0c
0i
#90246812
1t
0s
0r
0y
0c
0i
#90246812
0t
0s
0r
0y
0c
0i
#90263486
1t
0s
0r
0y
0c
0i
#90263486
0t
0s
0r
0y
0c
0i
#90280130
1t
0s
0r
0y
0c
0i
#90280130
0t
0s
0r
0y
0c
0i
#90296797
1t
0s
0r
0y
0c
0i
#90296797
0t
0s
0r
0y
0c
0i
#90313482
1t
0s
0r
1y
0c
0i
#90313482
0t
0s
0r
1y
0c
0i
#90363480
1t
0s
0r
1y
0c
0i
#90363480
0t
0s
0r
1y
0c
0i
#90380113
1t
0s
0r
1y
0c
0i
#90380113
0t
0s
0r
1y
0c
0i
#90413437
1t
0s
0r
1y
0c
0i
#90413437
0t
0s
0r
1y
0c
0i
#90419004
0t
0s
1r
1y
0c
0i
#90419007
0t
0s
0r
1y
0c
0i
#90430134
1t
0s
0r
1y
0c
0i
#90430134
0t
0s
0r
1y
0c
0i
#90446809
1t
0s
0r
1y
0c
0i
#90446809
0t
0s
0r
1y
0c
0i
#90463485
1t
0s
0r
1y
0c
0i
#90463485
0t
0s
0r
1y
0c
0i
#90513508
1t
0s
0r
1y
0c
0i
#90513508
0t
0s
0r
1y
0c
0i
#90530117
1t
0s
0r
1y
0c
0i
#90530117
0t
0s
0r
1y
0c
0i
#90546790
1t
0s
0r
1y
0c
0i
#90546790
0t
0s
0r
1y
0c
0i
#90646771
1t
0s
0r
1y
0c
0i
#90646771
0t
0s
0r
1y
0c
0i
#90680127
1t
0s
0r
0y
0c
0i
#90680127
0t
0s
0r
0y
0c
0i
#90696742
1t
0s
0r
0y
0c
0i
#90696742
0t
0s
0r
0y
0c
0i
#90730118
1t
0s
0r
1y
0c
0i
#90730118
0t
0s
0r
1y
0c
0i
#90746760
1t
0s
0r
1y
0c
0i
#90746760
0t
0s
0r
1y
0c
0i
#90763428
1t
0s
0r
1y
0c
0i
#90763428
0t
0s
0r
1y
0c
0i
#90780087
1t
0s
0r
1y
0c
0i
#90780087
0t
0s
0r
1y
0c
0i
#90796766
1t
0s
0r
1y
0c
0i
#90796766
0t
0s
0r
1y
0c
0i
#90813423
1t
0s
0r
1y
0c
0i
#90813423
0t
0s
0r
1y
0c
0i
#90818950
0t
0s
1r
1y
0c
0i
#90818953
0t
0s
0r
1y
0c
0i
#90830061
1t
0s
0r
1y
0c
0i
#90830061
0t
0s
0r
1y
0c
0i
#90846721
1t
0s
0r
1y
0c
0i
#90846721
0t
0s
0r
1y
0c
0i
#90880069
1t
0s
0r
1y
0c
0i
#90880069
0t
0s
0r
1y
0c
0i
#90896711
1t
0s
0r
1y
0c
0i
#90896711
0t
0s
0r
1y
0c
0i
#90930077
1t
0s
0r
1y
0c
0i
#90930077
0t
0s
0r
1y
0c
0i
#90963354
1t
0s
0r
1y
0c
0i
#90963354
0t
0s
0r
1y
0c
0i
#90980054
1t
0s
0r
1y
0c
0i
#90980054
0t
0s
0r
1y
0c
0i
#91013378
1t
0s
0r
1y
0c
0i
#91013378
0t
0s
0r
1y
0c
0i
#91030039
1t
0s
0r
1y
0c
0i
#91030039
0t
0s
0r
1y
0c
0i
#91046677
1t
0s
0r
1y
0c
0i
#91046677
0t
0s
0r
1y
0c
0i
#91063348
1t
0s
0r
1y
0c
0i
#91063348
0t
0s
0r
1y
0c
0i
#91080065
1t
0s
0r
1y
0c
0i
#91080065
0t
0s
0r
1y
0c
0i
#91180043
1t
0s
0r
1y
0c
0i
#91180043
0t
0s
0r
1y
0c
0i
#91196713
1t
0s
0r
0y
0c
0i
#91196713
0t
0s
0r
0y
0c
0i
#91230061
1t
0s
0r
0y
0c
0i
#91230061
0t
0s
0r
0y
0c
0i
#91246685
1t
0s
0r
0y
0c
0i
#91246685
0t
0s
0r
0y
0c
0i
#91279989
1t
0s
0r
1y
0c
0i
#91279989
0t
0s
0r
1y
0c
0i
#91296689
1t
0s
0r
1y
0c
0i
#91296689
0t
0s
0r
1y
0c
0i
#91313302
1t
0s
0r
1y
0c
0i
#91313302
0t
0s
0r
1y
0c
0i
#91330020
1t
0s
0r
1y
0c
0i
#91330020
0t
0s
0r
1y
0c
0i
#91363343
1t
0s
0r
1y
0c
0i
#91363343
0t
0s
0r
1y
0c
0i
#91368892
0t
0s
1r
1y
0c
0i
#91368895
0t
0s
0r
1y
0c
0i
#91380012
1t
0s
0r
1y
0c
0i
#91380012
0t
0s
0r
1y
0c
0i
#91396670
1t
0s
0r
1y
0c
0i
#91396670
0t
0s
0r
1y
0c
0i
#91413306
1t
0s
0r
1y
0c
0i
#91413306
0t
0s
0r
1y
0c
0i
#91429992
1t
0s
0r
1y
0c
0i
#91429992
0t
0s
0r
1y
0c
0i
#91446682
1t
0s
0r
1y
0c
0i
#91446682
0t
0s
0r
1y
0c
0i
#91496633
1t
0s
0r
1y
0c
0i
#91496633
0t
0s
0r
1y
0c
0i
#91513275
1t
0s
0r
1y
0c
0i
#91513275
0t
0s
0r
1y
0c
0i
#91529983
1t
0s
0r
1y
0c
0i
#91529983
0t
0s
0r
1y
0c
0i
#91546604
1t
0s
0r
1y
0c
0i
#91546604
0t
0s
0r
1y
0c
0i
#91563286
1t
0s
0r
1y
0c
0i
#91563286
0t
0s
0r
1y
0c
0i
#91613240
1t
0s
0r
1y
0c
0i
#91613240
0t
0s
0r
1y
0c
0i
#91629945
1t
0s
0r
1y
0c
0i
#91629945
0t
0s
0r
1y
0c
0i
#91713274
1t
0s
0r
1y
0c
0i
#91713274
0t
0s
0r
1y
0c
0i
#91763283
1t
0s
0r
0y
0c
0i
#91763283
0t
0s
0r
0y
0c
0i
#91779959
1t
0s
0r
0y
0c
0i
#91779959
0t
0s
0r
0y
0c
0i
#91796579
1t
0s
0r
1y
0c
0i
#91796579
0t
0s
0r
1y
0c
0i
#91813308
1t
0s
0r
1y
0c
0i
#91813308
0t
0s
0r
1y
0c
0i
#91829955
1t
0s
0r
1y
0c
0i
#91829955
0t
0s
0r
1y
0c
0i
#91846587
1t
0s
0r
1y
0c
0i
#91846587
0t
0s
0r
1y
0c
0i
#91863247
1t
0s
0r
1y
0c
0i
#91863247
0t
0s
0r
1y
0c
0i
#91879925
1t
0s
0r
1y
0c
0i
#91879925
0t
0s
0r
1y
0c
0i
#91896612
1t
0s
0r
1y
0c
0i
#91896612
0t
0s
0r
1y
0c
0i
#91902167
0t
0s
1r
1y
0c
0i
#91902170
0t
0s
0r
1y
0c
0i
#91913264
1t
0s
0r
1y
0c
0i
#91913264
0t
0s
0r
1y
0c
0i
#91946568
1t
0s
0r
1y
0c
0i
#91946568
0t
0s
0r
1y
0c
0i
#91963207
1t
0s
0r
1y
0c
0i
#91963207
0t
0s
0r
1y
0c
0i
#91979934
1t
0s
0r
1y
0c
0i
#91979934
0t
0s
0r
1y
0c
0i
#91996581
1t
0s
0r
1y
0c
0i
#91996581
0t
0s
0r
1y
0c
0i
#92013204
1t
0s
0r
1y
0c
0i
#92013204
0t
0s
0r
1y
0c
0i
#92046556
1t
0s
0r
1y
0c
0i
#92046556
0t
0s
0r
1y
0c
0i
#92063288
1t
0s
0r
1y
0c
0i
#92063288
0t
0s
0r
1y
0c
0i
#92163203
1t
0s
0r
1y
0c
0i
#92163203
0t
0s
0r
1y
0c
0i
#92179891
1t
0s
0r
0y
0c
0i
#92179891
0t
0s
0r
0y
0c
0i
#92196545
1t
0s
0r
0y
0c
0i
#92196545
0t
0s
0r
0y
0c
0i
#92229884
1t
0s
0r
0y
0c
0i
#92229884
0t
0s
0r
0y
0c
0i
#92246508
1t
0s
0r
1y
0c
0i
#92246508
0t
0s
0r
1y
0c
0i
#92263198
1t
0s
0r
1y
0c
0i
#92263198
0t
0s
0r
1y
0c
0i
#92279885
1t
0s
0r
1y
0c
0i
#92279885
0t
0s
0r
1y
0c
0i
#92296572
1t
0s
0r
1y
0c
0i
#92296572
0t
0s
0r
1y
0c
0i
#92313200
1t
0s
0r
1y
0c
0i
#92313200
0t
0s
0r
1y
0c
0i
#92329860
1t
0s
0r
1y
0c
0i
#92329860
0t
0s
0r
1y
0c
0i
#92352091
0t
0s
1r
1y
0c
0i
#92352094
0t
0s
0r
1y
0c
0i
#92363194
1t
0s
0r
1y
0c
0i
#92363194
0t
0s
0r
1y
0c
0i
#92413210
1t
0s
0r
1y
0c
0i
#92413210
0t
0s
0r
1y
0c
0i
#92429863
1t
0s
0r
1y
0c
0i
#92429863
0t
0s
0r
1y
0c
0i
#92463177
1t
0s
0r
1y
0c
0i
#92463177
0t
0s
0r
1y
0c
0i
#92479856
1t
0s
0r
1y
0c
0i
#92479856
0t
0s
0r
1y
0c
0i
#92496507
1t
0s
0r
1y
0c
0i
#92496507
0t
0s
0r
1y
0c
0i
#92529846
1t
0s
0r
1y
0c
0i
#92529846
0t
0s
0r
1y
0c
0i
#92563158
1t
0s
0r
1y
0c
0i
#92563158
0t
0s
0r
1y
0c
0i
#92579834
1t
0s
0r
1y
0c
0i
#92579834
0t
0s
0r
1y
0c
0i
#92596474
1t
0s
0r
1y
0c
0i
#92596474
0t
0s
0r
1y
0c
0i
#92613106
1t
0s
0r
1y
0c
0i
#92613106
0t
0s
0r
1y
0c
0i
#92629819
1t
0s
0r
1y
0c
0i
#92629819
0t
0s
0r
1y
0c
0i
#92646460
1t
0s
0r
1y
0c
0i
#92646460
0t
0s
0r
1y
0c
0i
#92663106
1t
0s
0r
1y
0c
0i
#92663106
0t
0s
0r
1y
0c
0i
#92679841
1t
0s
0r
1y
0c
0i
#92679841
0t
0s
0r
1y
0c
0i
#92696462
1t
0s
0r
1y
0c
0i
#92696462
0t
0s
0r
1y
0c
0i
#92713145
1t
0s
0r
1y
0c
0i
#92713145
0t
0s
0r
1y
0c
0i
#92729830
1t
0s
0r
1y
0c
0i
#92729830
0t
0s
0r
1y
0c
0i
#92746447
1t
0s
0r
1y
0c
0i
#92746447
0t
0s
0r
1y
0c
0i
#92763146
1t
0s
0r
1y
0c
0i
#92763146
0t
0s
0r
1y
0c
0i
#92779823
1t
0s
0r
1y
0c
0i
#92779823
0t
0s
0r
1y
0c
0i
#92785389
0t
0s
1r
1y
0c
0i
#92785391
0t
0s
0r
1y
0c
0i
#92796465
1t
0s
0r
1y
0c
0i
#92796465
0t
0s
0r
1y
0c
0i
#92813120
1t
0s
0r
1y
0c
0i
#92813120
0t
0s
0r
1y
0c
0i
#92829814
1t
0s
0r
1y
0c
0i
#92829814
0t
0s
0r
1y
0c
0i
#92846464
1t
0s
0r
1y
0c
0i
#92846464
0t
0s
0r
1y
0c
0i
#92863105
1t
0s
0r
1y
0c
0i
#92863105
0t
0s
0r
1y
0c
0i
#92879804
1t
0s
0r
1y
0c
0i
#92879804
0t
0s
0r
1y
0c
0i
#92896447
1t
0s
0r
1y
0c
0i
#92896447
0t
0s
0r
1y
0c
0i
#92913088
1t
0s
0r
1y
0c
0i
#92913088
0t
0s
0r
1y
0c
0i
#92929799
1t
0s
0r
1y
0c
0i
#92929799
0t
0s
0r
1y
0c
0i
#92946431
1t
0s
0r
1y
0c
0i
#92946431
0t
0s
0r
1y
0c
0i
#92963094
1t
0s
0r
1y
0c
0i
#92963094
0t
0s
0r
1y
0c
0i
#92979772
1t
0s
0r
1y
0c
0i
#92979772
0t
0s
0r
1y
0c
0i
#92996434
1t
0s
0r
1y
0c
0i
#92996434
0t
0s
0r
1y
0c
0i
#93013081
1t
0s
0r
1y
0c
0i
#93013081
0t
0s
0r
1y
0c
0i
#93029778
1t
0s
0r
1y
0c
0i
#93029778
0t
0s
0r
1y
0c
0i
#93046401
1t
0s
0r
1y
0c
0i
#93046401
0t
0s
0r
1y
0c
0i
#93063094
1t
0s
0r
1y
0c
0i
#93063094
0t
0s
0r
1y
0c
0i
#93079791
1t
0s
0r
1y
0c
0i
#93079791
0t
0s
0r
1y
0c
0i
#93096391
1t
0s
0r
1y
0c
0i
#93096391
0t
0s
0r
1y
0c
0i
#93113108
1t
0s
0r
1y
0c
0i
#93113108
0t
0s
0r
1y
0c
0i
#93129751
1t
0s
0r
1y
0c
0i
#93129751
0t
0s
0r
1y
0c
0i
#93146411
1t
0s
0r
1y
0c
0i
#93146411
0t
0s
0r
1y
0c
0i
#93163081
1t
0s
0r
1y
0c
0i
#93163081
0t
0s
0r
1y
0c
0i
#93174196
0t
0s
1r
1y
0c
0i
#93174198
0t
0s
0r
1y
0c
0i
#93179750
1t
0s
0r
1y
0c
0i
#93179750
0t
0s
0r
1y
0c
0i
#93196436
1t
0s
0r
1y
0c
0i
#93196436
0t
0s
0r
1y
0c
0i
#93213057
1t
0s
0r
1y
0c
0i
#93213057
0t
0s
0r
1y
0c
0i
#93246353
1t
0s
0r
1y
0c
0i
#93246353
0t
0s
0r
1y
0c
0i
#93263011
1t
0s
0r
1y
0c
0i
#93263011
0t
0s
0r
1y
0c
0i
#93279746
1t
0s
0r
1y
0c
0i
#93279746
0t
0s
0r
1y
0c
0i
#93313025
1t
0s
0r
1y
0c
0i
#93313025
0t
0s
0r
1y
0c
0i
#93329742
1t
0s
0r
1y
0c
0i
#93329742
0t
0s
0r
1y
0c
0i
#93346419
1t
0s
0r
1y
0c
0i
#93346419
0t
0s
0r
1y
0c
0i
#93363066
1t
0s
0r
1y
0c
0i
#93363066
0t
0s
0r
1y
0c
0i
#93379740
1t
0s
0r
1y
0c
0i
#93379740
0t
0s
0r
1y
0c
0i
#93396404
1t
0s
0r
1y
0c
0i
#93396404
0t
0s
0r
1y
0c
0i
#93413057
1t
0s
0r
1y
0c
0i
#93413057
0t
0s
0r
1y
0c
0i
#93429769
1t
0s
0r
1y
0c
0i
#93429769
0t
0s
0r
1y
0c
0i
#93446406
1t
0s
0r
1y
0c
0i
#93446406
0t
0s
0r
1y
0c
0i
#93463068
1t
0s
0r
1y
0c
0i
#93463068
0t
0s
0r
1y
0c
0i
#93529733
1t
0s
0r
1y
0c
0i
#93529733
0t
0s
0r
1y
0c
0i
#93546400
1t
0s
0r
0y
0c
0i
#93546400
0t
0s
0r
0y
0c
0i
#93563041
1t
0s
0r
0y
0c
0i
#93563041
0t
0s
0r
0y
0c
0i
#93579727
1t
0s
0r
1y
0c
0i
#93579727
0t
0s
0r
1y
0c
0i
#93596385
1t
0s
0r
1y
0c
0i
#93596385
0t
0s
0r
1y
0c
0i
#93607486
0t
0s
1r
1y
0c
0i
#93607488
0t
0s
0r
1y
0c
0i
#93613066
1t
0s
0r
1y
0c
0i
#93613066
0t
0s
0r
1y
0c
0i
#93629720
1t
0s
0r
1y
0c
0i
#93629720
0t
0s
0r
1y
0c
0i
#93646349
1t
0s
0r
1y
0c
0i
#93646349
0t
0s
0r
1y
0c
0i
#93679683
1t
0s
0r
1y
0c
0i
#93679683
0t
0s
0r
1y
0c
0i
#93696357
1t
0s
0r
1y
0c
0i
#93696357
0t
0s
0r
1y
0c
0i
#93713013
1t
0s
0r
1y
0c
0i
#93713013
0t
0s
0r
1y
0c
0i
#93729719
1t
0s
0r
1y
0c
0i
#93729719
0t
0s
0r
1y
0c
0i
#93746387
1t
0s
0r
1y
0c
0i
#93746387
0t
0s
0r
1y
0c
0i
#93763018
1t
0s
0r
1y
0c
0i
#93763018
0t
0s
0r
1y
0c
0i
#93779712
1t
0s
0r
1y
0c
0i
#93779712
0t
0s
0r
1y
0c
0i
#93796355
1t
0s
0r
1y
0c
0i
#93796355
0t
0s
0r
1y
0c
0i
#93812933
1t
0s
0r
1y
0c
0i
#93812933
0t
0s
0r
1y
0c
0i
#93829689
1t
0s
0r
1y
0c
0i
#93829689
0t
0s
0r
1y
0c
0i
#93846350
1t
0s
0r
1y
0c
0i
#93846350
0t
0s
0r
1y
0c
0i
#93863017
1t
0s
0r
1y
0c
0i
#93863017
0t
0s
0r
1y
0c
0i
#93879717
1t
0s
0r
1y
0c
0i
#93879717
0t
0s
0r
1y
0c
0i
#93896392
1t
0s
0r
1y
0c
0i
#93896392
0t
0s
0r
1y
0c
0i
#93913010
1t
0s
0r
1y
0c
0i
#93913010
0t
0s
0r
1y
0c
0i
#93929695
1t
0s
0r
1y
0c
0i
#93929695
0t
0s
0r
1y
0c
0i
#93946360
1t
0s
0r
1y
0c
0i
#93946360
0t
0s
0r
1y
0c
0i
#93963035
1t
0s
0r
1y
0c
0i
#93963035
0t
0s
0r
1y
0c
0i
#93979703
1t
0s
0r
1y
0c
0i
#93979703
0t
0s
0r
1y
0c
0i
#93996388
1t
0s
0r
1y
0c
0i
#93996388
0t
0s
0r
1y
0c
0i
#94013038
1t
0s
0r
1y
0c
0i
#94013038
0t
0s
0r
1y
0c
0i
#94026007
0t
0s
1r
1y
0c
0i
#94026010
0t
0s
0r
1y
0c
0i
#94029705
1t
0s
0r
1y
0c
0i
#94029705
0t
0s
0r
1y
0c
0i
#94046347
1t
0s
0r
1y
0c
0i
#94046347
0t
0s
0r
1y
0c
0i
#94063003
1t
0s
0r
1y
0c
0i
#94063003
0t
0s
0r
1y
0c
0i
#94079692
1t
0s
0r
1y
0c
0i
#94079692
0t
0s
0r
1y
0c
0i
#94096361
1t
0s
0r
1y
0c
0i
#94096361
0t
0s
0r
1y
0c
0i
#94113002
1t
0s
0r
1y
0c
0i
#94113002
0t
0s
0r
1y
0c
0i
#94129698
1t
0s
0r
1y
0c
0i
#94129698
0t
0s
0r
1y
0c
0i
#94146331
1t
0s
0r
1y
0c
0i
#94146331
0t
0s
0r
1y
0c
0i
#94162987
1t
0s
0r
1y
0c
0i
#94162987
0t
0s
0r
1y
0c
0i
#94179660
1t
0s
0r
1y
0c
0i
#94179660
0t
0s
0r
1y
0c
0i
#94196317
1t
0s
0r
1y
0c
0i
#94196317
0t
0s
0r
1y
0c
0i
#94212975
1t
0s
0r
1y
0c
0i
#94212975
0t
0s
0r
1y
0c
0i
#94229611
1t
0s
0r
1y
0c
0i
#94229611
0t
0s
0r
1y
0c
0i
#94246302
1t
0s
0r
1y
0c
0i
#94246302
0t
0s
0r
1y
0c
0i
#94262961
1t
0s
0r
1y
0c
0i
#94262961
0t
0s
0r
1y
0c
0i
#94362989
1t
0s
0r
1y
0c
0i
#94362989
0t
0s
0r
1y
0c
0i
#94379646
1t
0s
0r
0y
0c
0i
#94379646
0t
0s
0r
0y
0c
0i
#94396287
1t
0s
0r
0y
0c
0i
#94396287
0t
0s
0r
0y
0c
0i
#94412926
1t
0s
0r
0y
0c
0i
#94412926
0t
0s
0r
0y
0c
0i
#94429646
1t
0s
0r
1y
0c
0i
#94429646
0t
0s
0r
1y
0c
0i
#94446274
1t
0s
0r
1y
0c
0i
#94446274
0t
0s
0r
1y
0c
0i
#94459230
0t
0s
1r
1y
0c
0i
#94459233
0t
0s
0r
1y
0c
0i
#94462978
1t
0s
0r
1y
0c
0i
#94462978
0t
0s
0r
1y
0c
0i
#94479604
1t
0s
0r
1y
0c
0i
#94479604
0t
0s
0r
1y
0c
0i
#94496319
1t
0s
0r
1y
0c
0i
#94496319
0t
0s
0r
1y
0c
0i
#94512958
1t
0s
0r
1y
0c
0i
#94512958
0t
0s
0r
1y
0c
0i
#94529654
1t
0s
0r
1y
0c
0i
#94529654
0t
0s
0r
1y
0c
0i
#94546306
1t
0s
0r
1y
0c
0i
#94546306
0t
0s
0r
1y
0c
0i
#94562968
1t
0s
0r
1y
0c
0i
#94562968
0t
0s
0r
1y
0c
0i
#94579591
1t
0s
0r
1y
0c
0i
#94579591
0t
0s
0r
1y
0c
0i
#94596309
1t
0s
0r
1y
0c
0i
#94596309
0t
0s
0r
1y
0c
0i
#94612953
1t
0s
0r
1y
0c
0i
#94612953
0t
0s
0r
1y
0c
0i
#94629633
1t
0s
0r
1y
0c
0i
#94629633
0t
0s
0r
1y
0c
0i
#94646297
1t
0s
0r
1y
0c
0i
#94646297
0t
0s
0r
1y
0c
0i
#94662963
1t
0s
0r
1y
0c
0i
#94662963
0t
0s
0r
1y
0c
0i
#94679641
1t
0s
0r
1y
0c
0i
#94679641
0t
0s
0r
1y
0c
0i
#94696291
1t
0s
0r
1y
0c
0i
#94696291
0t
0s
0r
1y
0c
0i
#94712971
1t
0s
0r
1y
0c
0i
#94712971
0t
0s
0r
1y
0c
0i
#94729609
1t
0s
0r
1y
0c
0i
#94729609
0t
0s
0r
1y
0c
0i
#94746303
1t
0s
0r
1y
0c
0i
#94746303
0t
0s
0r
1y
0c
0i
#94762957
1t
0s
0r
1y
0c
0i
#94762957
0t
0s
0r
1y
0c
0i
#94779611
1t
0s
0r
1y
0c
0i
#94779611
0t
0s
0r
1y
0c
0i
#94796252
1t
0s
0r
1y
0c
0i
#94796252
0t
0s
0r
1y
0c
0i
#94812941
1t
0s
0r
1y
0c
0i
#94812941
0t
0s
0r
1y
0c
0i
#94829628
1t
0s
0r
1y
0c
0i
#94829628
0t
0s
0r
1y
0c
0i
#94846261
1t
0s
0r
1y
0c
0i
#94846261
0t
0s
0r
1y
0c
0i
#94857396
0t
0s
1r
1y
0c
0i
#94857399
0t
0s
0r
1y
0c
0i
#94862928
1t
0s
0r
1y
0c
0i
#94862928
0t
0s
0r
1y
0c
0i
#94879603
1t
0s
0r
1y
0c
0i
#94879603
0t
0s
0r
1y
0c
0i
#94896274
1t
0s
0r
1y
0c
0i
#94896274
0t
0s
0r
1y
0c
0i
#94912965
1t
0s
0r
1y
0c
0i
#94912965
0t
0s
0r
1y
0c
0i
#94929617
1t
0s
0r
1y
0c
0i
#94929617
0t
0s
0r
1y
0c
0i
#94946269
1t
0s
0r
1y
0c
0i
#94946269
0t
0s
0r
1y
0c
0i
#94962949
1t
0s
0r
1y
0c
0i
#94962949
0t
0s
0r
1y
0c
0i
#94979650
1t
0s
0r
1y
0c
0i
#94979650
0t
0s
0r
1y
0c
0i
#95012966
1t
0s
0r
1y
0c
0i
#95012966
0t
0s
0r
1y
0c
0i
#95029623
1t
0s
0r
1y
0c
0i
